dump.vcd
$date
Wed Jun 25 03:32:14 2025
$end
$version
Riviera-PRO Version 2023.04.112.8911
$end
$timescale
1 ns
$end

$scope module top $end
$var reg 1 ! clock $end
$var reg 1 " dsi_rst $end
$var reg 1 # dsi_clk $end

$scope module dcif $end
$var reg 1 $ clk $end
$var reg 1 % rst $end
$var reg 1 & VSYNC $end
$var reg 1 ' HSYNC $end
$var reg 1 ( DATA_ENABLE $end
$var reg 24 ) DATA [23:0] $end
$var reg 24 * temp [23:0] $end
$var reg 6 + no_pixel [5:0] $end
$var reg 1 , VSYNC $end
$var reg 1 - HSYNC $end
$var reg 1 . DATA_ENABLE $end
$var reg 24 / DATA [23:0] $end
$var reg 24 0 temp [23:0] $end
$var reg 6 1 no_pixel [5:0] $end
$var reg 1 2 VSYNC $end
$var reg 1 3 HSYNC $end
$var reg 1 4 DATA_ENABLE $end
$var reg 24 5 DATA [23:0] $end
$var reg 24 6 temp [23:0] $end
$var reg 6 7 no_pixel [5:0] $end
$upscope $end


$scope module dmif $end
$var reg 1 8 ppi_clk $end
$var reg 8 9 PPI_DATA_LANE0 [7:0] $end
$var reg 8 : PPI_DATA_LANE1 [7:0] $end
$var reg 8 ; PPI_DATA_LANE2 [7:0] $end
$var reg 8 < PPI_DATA_LANE3 [7:0] $end
$var reg 1 = PPI_LANE0_EN $end
$var reg 1 > PPI_LANE1_EN $end
$var reg 1 ? PPI_LANE2_EN $end
$var reg 1 @ PPI_LANE3_EN $end
$var reg 8 A PPI_DATA_LANE0 [7:0] $end
$var reg 8 B PPI_DATA_LANE1 [7:0] $end
$var reg 8 C PPI_DATA_LANE2 [7:0] $end
$var reg 8 D PPI_DATA_LANE3 [7:0] $end
$var reg 1 E PPI_LANE0_EN $end
$var reg 1 F PPI_LANE1_EN $end
$var reg 1 G PPI_LANE2_EN $end
$var reg 1 H PPI_LANE3_EN $end
$upscope $end


$scope module daif $end
$var reg 1 I clk $end
$var reg 1 J HWRITE $end
$var reg 32 K HWDATA [31:0] $end
$var reg 32 L HADDR [31:0] $end
$var reg 3 M HSIZE [2:0] $end
$var reg 4 N HPROT [3:0] $end
$var reg 2 O HRESP [1:0] $end
$var reg 3 P HBURST [2:0] $end
$var reg 2 Q HTRANS [1:0] $end
$var reg 1 R HREADY $end
$var reg 1 S HWRITE $end
$var reg 32 T HWDATA [31:0] $end
$var reg 32 U HADDR [31:0] $end
$var reg 4 V HPROT [3:0] $end
$var reg 3 W HSIZE [2:0] $end
$var reg 3 X HBURST [2:0] $end
$var reg 2 Y HTRANS [1:0] $end
$var reg 2 Z HRESP [1:0] $end
$var reg 1 [ HREADY $end
$var reg 1 \ HWRITE $end
$var reg 32 ] HWDATA [31:0] $end
$var reg 32 ^ HADDR [31:0] $end
$var reg 4 _ HPROT [3:0] $end
$var reg 3 ` HSIZE [2:0] $end
$var reg 3 a HBURST [2:0] $end
$var reg 2 b HRESP [1:0] $end
$var reg 1 c HREADY $end
$var reg 2 d HTRANS [1:0] $end
$upscope $end


$scope module dut $end
$var wire 32 e haddr [31:0] $end
$var wire 1 f hwrite $end
$var wire 3 g hsize [2:0] $end
$var wire 3 h hburst [2:0] $end
$var wire 2 i htrans [1:0] $end
$var wire 32 j hwdata [31:0] $end
$var wire 4 k hprot [3:0] $end
$var wire 24 l pixel_data [23:0] $end
$var wire 1 m data_valid $end
$var wire 1 n hsync $end
$var wire 1 o vsync $end
$var wire 1 p pclk $end
$var wire 1 q dsi_rst $end
$var reg 2 r hresp [1:0] $end
$var reg 1 s hready $end
$var reg 1 t dsi_clk $end
$var reg 8 u ppi_data_lane0 [7:0] $end
$var reg 8 v ppi_data_lane1 [7:0] $end
$var reg 8 w ppi_data_lane2 [7:0] $end
$var reg 8 x ppi_data_lane3 [7:0] $end
$var reg 1 y ppi_lane0_en $end
$var reg 1 z ppi_lane1_en $end
$var reg 1 { ppi_lane2_en $end
$var reg 1 | ppi_lane3_en $end
$var reg 8 } ecc [7:0] $end
$var reg 16 ~ crc [15:0] $end
$var reg 32 !! header [31:0] $end
$var reg 16 "! WC [15:0] $end
$var reg 1 #! fifo_done $end
$var reg 1 $! ecc_done $end
$var reg 1 %! crc_done $end
$var reg 1 &! packet_done $end
$var reg 1 '! lane_done $end
$var reg 192 (! payload [191:0] $end
$var reg 272 )! long_packet [271:0] $end
$var reg 64 *! short_packet [63:0] $end
$var parameter 32 +! FRAME_LENGTH [31:0] $end
$var parameter 32 ,! FRAME_WIDTH [31:0] $end

$scope module gen_dsi_clk $end
$var wire 1 p pclk $end
$var reg 1 -! dsi_clk $end
$var reg 3 .! DIV [2:0] $end
$var reg 32 /! start_time [31:0] $end
$var reg 32 0! end_time [31:0] $end
$var reg 32 1! pclk_tp [31:0] $end
$var reg 32 2! dsi_clk_tp [31:0] $end
$upscope $end


$scope module gen_payload $end
$var wire 1 p pclk $end
$var wire 16 3! WC [15:0] $end
$var wire 24 4! pixel_data [23:0] $end
$var wire 1 5! data_valid $end
$var reg 192 6! payload [191:0] $end
$var reg 1 7! fifo_done $end
$var integer 32 8! i $end
$var integer 32 9! j $end
$var integer 32 :! k $end
$upscope $end


$scope module gen_ecc $end
$var wire 1 ;! dsi_clk $end
$var wire 192 <! payload [191:0] $end
$var wire 1 =! fifo_done $end
$var reg 8 >! ecc [7:0] $end
$var reg 1 ?! ecc_done $end
$var integer 32 @! i $end
$upscope $end


$scope module gen_crc $end
$var wire 1 ;! dsi_clk $end
$var wire 192 <! payload [191:0] $end
$var wire 1 =! fifo_done $end
$var reg 16 A! crc [15:0] $end
$var reg 1 B! crc_done $end
$var integer 32 C! i $end
$var reg 16 D! crc_poly [15:0] $end
$upscope $end


$scope module packet $end
$var wire 1 ;! dsi_clk $end
$var wire 16 3! WC [15:0] $end
$var wire 192 <! payload [191:0] $end
$var wire 8 E! ecc [7:0] $end
$var wire 16 F! crc [15:0] $end
$var wire 1 =! fifo_done $end
$var wire 1 G! ecc_done $end
$var wire 1 H! crc_done $end
$var reg 64 I! short_packet [63:0] $end
$var reg 272 J! long_packet [271:0] $end
$var reg 1 K! packet_done $end
$var reg 32 L! header [31:0] $end

$scope task @FORK#39_0@ $end
$upscope $end


$scope task @FORK#44_1@ $end
$upscope $end


$scope task @FORK#49_2@ $end
$upscope $end

$upscope $end


$scope module lane_manage $end
$var wire 1 ;! dsi_clk $end
$var wire 64 M! short_packet [63:0] $end
$var wire 272 N! long_packet [271:0] $end
$var wire 1 O! packet_done $end
$var reg 8 P! ppi_data_lane0 [7:0] $end
$var reg 8 Q! ppi_data_lane1 [7:0] $end
$var reg 8 R! ppi_data_lane2 [7:0] $end
$var reg 8 S! ppi_data_lane3 [7:0] $end
$var reg 1 T! lane_done $end
$var reg 16 U! WC [15:0] $end
$upscope $end

$upscope $end

$upscope $end


$scope module uvm_pkg $end
$var integer 32 V! UVM_UNBOUNDED_CONNECTIONS $end
$var reg 1 W! uvm_start_uvm_declarations $end
$var integer 32 X! uvm_global_random_seed $end
$var parameter 32 Y! UVM_HDL_MAX_WIDTH [31:0] $end
$var parameter 32 Z! UVM_STREAMBITS [31:0] $end
$var parameter 32 [! UVM_RADIX [31:0] $end
$var parameter 32 \! UVM_MACRO_NUMFLAGS [31:0] $end
$var parameter 32 ]! UVM_DEFAULT [31:0] $end
$var parameter 32 ^! UVM_ALL_ON [31:0] $end
$var parameter 32 _! UVM_FLAGS_ON [31:0] $end
$var parameter 32 `! UVM_FLAGS_OFF [31:0] $end
$var parameter 32 a! UVM_COPY [31:0] $end
$var parameter 32 b! UVM_NOCOPY [31:0] $end
$var parameter 32 c! UVM_COMPARE [31:0] $end
$var parameter 32 d! UVM_NOCOMPARE [31:0] $end
$var parameter 32 e! UVM_PRINT [31:0] $end
$var parameter 32 f! UVM_NOPRINT [31:0] $end
$var parameter 32 g! UVM_RECORD [31:0] $end
$var parameter 32 h! UVM_NORECORD [31:0] $end
$var parameter 32 i! UVM_PACK [31:0] $end
$var parameter 32 j! UVM_NOPACK [31:0] $end
$var parameter 32 k! UVM_PHYSICAL [31:0] $end
$var parameter 32 l! UVM_ABSTRACT [31:0] $end
$var parameter 32 m! UVM_READONLY [31:0] $end
$var parameter 32 n! UVM_NODEFPRINT [31:0] $end
$var parameter 32 o! UVM_MACRO_EXTRAS [31:0] $end
$var parameter 32 p! UVM_FLAGS [31:0] $end
$var parameter 32 q! UVM_UNPACK [31:0] $end
$var parameter 32 r! UVM_CHECK_FIELDS [31:0] $end
$var parameter 32 s! UVM_END_DATA_EXTRA [31:0] $end
$var parameter 32 t! UVM_START_FUNCS [31:0] $end
$var parameter 32 u! UVM_SET [31:0] $end
$var parameter 32 v! UVM_SETINT [31:0] $end
$var parameter 32 w! UVM_SETOBJ [31:0] $end
$var parameter 32 x! UVM_SETSTR [31:0] $end
$var parameter 32 y! UVM_END_FUNCS [31:0] $end
$var parameter 32 z! UVM_STR_CRC_POLYNOMIAL [31:0] $end
$var parameter 32 {! UVM_STDOUT [31:0] $end
$var parameter 32 |! UVM_LOG_UVM_RM_RECORD [31:0] $end
$var parameter 32 }! UVM_LINE_WIDTH [31:0] $end
$var parameter 32 ~! UVM_NUM_LINES [31:0] $end
$var parameter 32 !" UVM_SMALL_STRING [31:0] $end
$var parameter 32 "" UVM_LARGE_STRING [31:0] $end

$scope function uvm_hdl_check_path $end
$var integer 32 #" uvm_hdl_check_path $end
$upscope $end


$scope function uvm_hdl_deposit $end
$var reg 1024 $" value [1023:0] $end
$var integer 32 %" uvm_hdl_deposit $end
$upscope $end


$scope function uvm_hdl_force $end
$var reg 1024 &" value [1023:0] $end
$var integer 32 '" uvm_hdl_force $end
$upscope $end


$scope task uvm_hdl_force_time $end
$var reg 1024 (" value [1023:0] $end
$var time 64 )" force_time $end
$upscope $end


$scope function uvm_hdl_release_and_read $end
$var reg 1024 *" value [1023:0] $end
$var integer 32 +" uvm_hdl_release_and_read $end
$upscope $end


$scope function uvm_hdl_release $end
$var integer 32 ," uvm_hdl_release $end
$upscope $end


$scope function uvm_hdl_read $end
$var reg 1024 -" value [1023:0] $end
$var integer 32 ." uvm_hdl_read $end
$upscope $end


$scope function uvm_dpi_get_next_arg_c $end
$var integer 32 /" init $end
$upscope $end


$scope function uvm_dpi_get_tool_name_c $end
$upscope $end


$scope function uvm_dpi_get_tool_version_c $end
$upscope $end


$scope function uvm_dpi_get_next_arg $end
$var integer 32 0" init $end
$upscope $end


$scope function uvm_dpi_get_tool_name $end
$upscope $end


$scope function uvm_dpi_get_tool_version $end
$upscope $end


$scope function uvm_dpi_regcomp $end
$upscope $end


$scope function uvm_dpi_regexec $end
$var integer 32 1" uvm_dpi_regexec $end
$upscope $end


$scope function uvm_dpi_regfree $end
$upscope $end


$scope function uvm_re_match $end
$var integer 32 2" uvm_re_match $end
$upscope $end


$scope function uvm_dump_re_cache $end
$upscope $end


$scope function uvm_glob_to_re $end
$upscope $end


$scope function uvm_revision_string $end
$upscope $end


$scope function uvm_radix_to_string $end
$var integer 32 3" radix $end
$upscope $end


$scope function uvm_instance_scope $end
$var reg 8 4" c [7:0] $end
$var integer 32 5" pos $end

$scope begin 1unnblk $end
$var integer 32 6" dot_pos $end
$var integer 32 7" slash_cnt $end
$var integer 32 8" slash_pos $end
$upscope $end

$upscope $end


$scope function uvm_oneway_hash $end
$var integer 32 9" seed $end
$var integer 32 :" uvm_oneway_hash $end
$var reg 1 ;" msb $end
$var reg 8 <" current_byte [7:0] $end
$var reg 32 =" crc1 [31:0] $end
$upscope $end


$scope function uvm_create_random_seed $end
$var integer 32 >" uvm_create_random_seed $end
$upscope $end


$scope function uvm_object_value_str $end
$upscope $end


$scope function uvm_leaf_scope $end
$var reg 8 ?" scope_separator [7:0] $end
$var reg 8 @" bracket_match [7:0] $end
$var integer 32 A" pos $end
$var integer 32 B" bmatches $end
$upscope $end


$scope function get_radix_string_global $end
$var integer 32 C" radix $end
$upscope $end


$scope function uvm_bitstream_to_string $end
$var reg 4096 D" value [4095:0] $end
$var integer 32 E" size $end
$var integer 32 F" radix $end

$scope begin 24unnblk $end
$var reg 4096 G" _t [4095:0] $end
$upscope $end

$upscope $end


$scope function uvm_integral_to_string $end
$var reg 64 H" value [63:0] $end
$var integer 32 I" size $end
$var integer 32 J" radix $end

$scope begin 26unnblk $end
$var reg 64 K" _t [63:0] $end
$upscope $end

$upscope $end


$scope function uvm_vector_to_string $end
$var reg 4096 L" value [4095:0] $end
$var integer 32 M" size $end
$var integer 32 N" radix $end
$upscope $end


$scope function uvm_get_array_index_int $end
$var reg 1 O" is_wildcard $end
$var integer 32 P" uvm_get_array_index_int $end
$var integer 32 Q" i $end
$upscope $end


$scope function uvm_get_array_index_string $end
$var reg 1 R" is_wildcard $end
$var integer 32 S" i $end
$upscope $end


$scope function uvm_is_array $end
$var reg 1 T" uvm_is_array $end
$upscope $end


$scope function uvm_has_wildcard $end
$upscope $end


$scope function m_uvm_string_queue_join $end
$upscope $end


$scope task run_test $end
$upscope $end


$scope function global_stop_request $end
$upscope $end


$scope function set_global_timeout $end
$var time 64 U" timeout $end
$var reg 1 V" overridable $end
$upscope $end


$scope function set_global_stop_timeout $end
$var time 64 W" timeout $end
$upscope $end


$scope function uvm_get_report_object $end
$upscope $end


$scope function uvm_report_enabled $end
$var integer 32 X" verbosity $end
$var reg 2 Y" severity $end
$var integer 32 Z" uvm_report_enabled $end
$upscope $end


$scope function uvm_report $end
$var reg 2 [" severity $end
$var integer 32 \" verbosity $end
$var integer 32 ]" line $end
$var reg 1 ^" report_enabled_checked $end
$upscope $end


$scope function m__uvm_report_dpi $end
$var integer 32 _" severity $end
$var integer 32 `" verbosity $end
$var integer 32 a" line $end
$upscope $end


$scope function uvm_report_info $end
$var integer 32 b" verbosity $end
$var integer 32 c" line $end
$var reg 1 d" report_enabled_checked $end
$upscope $end


$scope function uvm_report_warning $end
$var integer 32 e" verbosity $end
$var integer 32 f" line $end
$var reg 1 g" report_enabled_checked $end
$upscope $end


$scope function uvm_report_error $end
$var integer 32 h" verbosity $end
$var integer 32 i" line $end
$var reg 1 j" report_enabled_checked $end
$upscope $end


$scope function uvm_report_fatal $end
$var integer 32 k" verbosity $end
$var integer 32 l" line $end
$var reg 1 m" report_enabled_checked $end
$upscope $end


$scope function uvm_process_report_message $end
$upscope $end


$scope function uvm_string_to_severity $end
$var reg 2 n" sev $end
$var reg 1 o" uvm_string_to_severity $end
$upscope $end


$scope function uvm_string_to_action $end
$upscope $end


$scope function set_config_int $end
$var reg 4096 p" value [4095:0] $end
$upscope $end


$scope function set_config_object $end
$var reg 1 q" clone $end
$upscope $end


$scope function set_config_string $end
$upscope $end


$scope function uvm_is_match $end
$var reg 1 r" uvm_is_match $end
$upscope $end


$scope function uvm_string_to_bits $end
$var reg 115200 s" uvm_string_to_bits [115199:0] $end
$upscope $end


$scope function uvm_bits_to_string $end
$var reg 115200 t" str [115199:0] $end
$upscope $end


$scope task uvm_wait_for_nba_region $end
$var integer 32 u" nba $end
$var integer 32 v" next_nba $end
$upscope $end


$scope function uvm_split_string $end
$upscope $end


$scope function uvm_hdl_concat2string $end
$upscope $end

$upscope $end


$scope module UnitScopePackage_1 $end
$upscope $end


$scope module std $end

$scope function randomize $end
$var reg 1 w" randomize $end
$upscope $end

$upscope $end

$enddefinitions $end
$dumpvars
0!
0"
0#
0$
0%
x&
x'
x(
bx )
bx *
bx +
x,
x-
x.
bx /
b1010000 0
b1010 1
x2
x3
x4
bx 5
bx 6
bx 7
08
bx 9
bx :
bx ;
bx <
x=
x>
x?
x@
bx A
bx B
bx C
bx D
xE
xF
xG
xH
0I
xJ
bx K
bx L
bx M
bx N
bx O
bx P
bx Q
1R
xS
bx T
bx U
bx V
bx W
bx X
bx Y
bx Z
x[
x\
bx ]
bx ^
bx _
bx `
bx a
bx b
xc
bx d
bx e
xf
bx g
bx h
bx i
bx j
bx k
bx l
xm
xn
xo
0p
0q
bx r
1s
0t
bx u
bx v
bx w
bx x
xy
xz
x{
x|
b0 }
b0 ~
bx !!
bx "!
0#!
0$!
0%!
0&!
0'!
b0 (!
b0 )!
b0 *!
b1000 +!
b1010 ,!
0-!
bx .!
bx /!
bx 0!
bx 1!
bx 2!
bx 3!
bx 4!
x5!
b0 6!
07!
b0 8!
b0 9!
b0 :!
0;!
b0 <!
0=!
b0 >!
0?!
b0 @!
b0 A!
0B!
b0 C!
b100101011111110 D!
b0 E!
b0 F!
0G!
0H!
b0 I!
b0 J!
0K!
bx L!
b0 M!
b0 N!
0O!
bx P!
bx Q!
bx R!
bx S!
0T!
bx U!
b11111111111111111111111111111111 V!
1W!
b1000011111110111011111100011111 X!
b10000000000 Y!
b1000000000000 Z!
b1111000000000000000000000000 [!
b10001 \!
b10101010101 ]!
b101010101 ^!
b101010101 _!
b0 `!
b1 a!
b10 b!
b100 c!
b1000 d!
b10000 e!
b100000 f!
b1000000 g!
b10000000 h!
b100000000 i!
b1000000000 j!
b10000000000000 k!
b100000000000000 l!
b1000000000000000 m!
b10000000000000000 n!
b100000000000000000 o!
b100000000000000001 p!
b100000000000000010 q!
b100000000000000011 r!
b100000000000000100 s!
b100000000000000101 t!
b100000000000000110 u!
b100000000000000110 v!
b100000000000000111 w!
b100000000000001000 x!
b100000000000001000 y!
b100110000010001110110110110 z!
b1 {!
b1000010 |!
b1111000 }!
b1111000 ~!
b1110111111 !"
b11100000111111111 ""
b0 #"
bx $"
b0 %"
bx &"
b0 '"
bx ("
bx )"
bx *"
b0 +"
b0 ,"
bx -"
b0 ."
b0 /"
b0 0"
b0 1"
b0 2"
b0 3"
b101110 4"
b11011 5"
b10001 6"
b11 7"
b11001 8"
b1000011111110111011111100011111 9"
b1000111110101000010100010101101 :"
0;"
b1110001 <"
b1110001100101100010011111111100 ="
b11110110011101101100001010010000 >"
b101110 ?"
b0 @"
b11010 A"
b11111111111111111111111111111111 B"
b0 C"
bx D"
b0 E"
b0 F"
bx G"
b1 H"
b100000 I"
b10000000000000000000000000 J"
bx K"
bx L"
b0 M"
b0 N"
0O"
b0 P"
b0 Q"
0R"
b0 S"
0T"
bx U"
0V"
bx W"
b111110100 X"
b0 Y"
b0 Z"
b0 ["
b0 \"
b0 ]"
0^"
b0 _"
b0 `"
b0 a"
b0 b"
b0 c"
0d"
b0 e"
b10110001100 f"
1g"
b0 h"
b0 i"
0j"
b0 k"
b0 l"
0m"
b0 n"
0o"
bx p"
0q"
0r"
bx s"
bx t"
b100100 u"
b100100 v"
0w"
$end
#10
1"
1%
1q
#12
1!
1$
1I
1p
b1 .!
1c
1[
b100101 v"
1,
b100101 u"
1S
b1000000000000000000000000000000 U
b10 W
b0 V
b0 X
b10 Y
#13
b1010 +
b1010000 *
1&
b10 Q
b0 P
b10 M
b0 N
b1000000000000000000000000000000 L
1J
1f
b1000000000000000000000000000000 e
b0 k
b10 g
b0 h
b10 i
1o
#24
0!
0$
0I
0p
#36
1!
1$
1I
1p
b100100 /!
b1010 7
b1010000 6
12
b10 d
b0 a
b10 `
b0 _
b1000000000000000000000000000000 ^
1\
b100110 v"
b1000111110101000010100010101110 >"
0,
1-
b0 T
b100110 u"
b1000000000000000000000000100000 U
b10 W
b1101 V
b0 X
b10 Y
#37
1'
0&
b0 K
b1101 N
b1000000000000000000000000100000 L
b1000000000000000000000000100000 e
b1101 k
b0 j
0o
1n
#48
0!
0$
0I
0p
#60
1!
1$
1I
1p
b0 r
b111100 0!
b11000 1!
b1000 2!
b0 O
13
02
b1101 _
b1000000000000000000000000100000 ^
b0 ]
b100111 v"
b1000111110101000010100010110000 >"
0-
b1 T
b100111 u"
b1000000000000000000000000100100 U
b10 W
b111 V
b0 X
b10 Y
#61
0'
b1 K
b111 N
b1000000000000000000000000100100 L
b1000000000000000000000000100100 e
b111 k
b1 j
0n
#64
1-!
1t
1#
18
1;!
#68
0-!
0t
0#
08
0;!
#72
0!
1-!
0$
0I
1t
1#
18
1;!
0p
#76
0-!
0t
0#
08
0;!
#80
1-!
1t
1#
18
1;!
#84
1!
0-!
1$
1I
0t
0#
08
0;!
1p
03
b0 b
b111 _
b1000000000000000000000000100100 ^
b1 ]
b0 Z
b101000 v"
b1000111110101000010100010110011 >"
1.
b110111100011001100111000 /
b1010000 T
b101000 u"
b1000000000000000000000000101000 U
b10 W
b1110 V
b0 X
b10 Y
#85
b110111100011001100111000 )
1(
b1010000 K
b1110 N
b1000000000000000000000000101000 L
b1000000000000000000000000101000 e
b1110 k
b1010000 j
1m
15!
b110111100011001100111000 l
b110111100011001100111000 4!
#88
1-!
1t
1#
18
1;!
#92
0-!
0t
0#
08
0;!
#96
0!
1-!
0$
0I
1t
1#
18
1;!
0p
#100
0-!
0t
0#
08
0;!
#104
1-!
1t
1#
18
1;!
#108
1!
0-!
1$
1I
0t
0#
08
0;!
1p
b1 8!
b110111100011001100111000 5
14
b1110 _
b1000000000000000000000000101000 ^
b1010000 ]
b101001 v"
b1000111110101000010100010110111 >"
b101011100010001101010 /
b1 T
b101001 u"
b1000000000000000000000000101100 U
b10 W
b10 V
b0 X
b10 Y
#109
b101011100010001101010 )
b1 K
b10 N
b1000000000000000000000000101100 L
b1000000000000000000000000101100 e
b10 k
b1 j
b101011100010001101010 l
b101011100010001101010 4!
#112
1-!
1t
1#
18
1;!
#116
0-!
0t
0#
08
0;!
#120
0!
1-!
0$
0I
1t
1#
18
1;!
0p
#124
0-!
0t
0#
08
0;!
#128
1-!
1t
1#
18
1;!
#132
1!
0-!
1$
1I
0t
0#
08
0;!
1p
b10 8!
b101011100010001101010 5
b10 _
b1000000000000000000000000101100 ^
b1 ]
b101010 v"
b1000111110101000010100010111100 >"
b101000100011110110101010 /
b11 T
b101010 u"
b1000000000000000000000000110000 U
b10 W
b11 V
b0 X
b10 Y
#133
b101000100011110110101010 )
b11 K
b11 N
b1000000000000000000000000110000 L
b1000000000000000000000000110000 e
b11 k
b11 j
b101000100011110110101010 l
b101000100011110110101010 4!
#136
1-!
1t
1#
18
1;!
#140
0-!
0t
0#
08
0;!
#144
0!
1-!
0$
0I
1t
1#
18
1;!
0p
#148
0-!
0t
0#
08
0;!
#152
1-!
1t
1#
18
1;!
#156
1!
0-!
1$
1I
0t
0#
08
0;!
1p
b11 8!
b101000100011110110101010 5
b11 _
b1000000000000000000000000110000 ^
b11 ]
b101011 v"
b1000111110101000010100011000010 >"
b11001111011110010100101 /
b11 T
b101011 u"
b1000000000000000000000000110100 U
b10 W
b1 V
b0 X
b10 Y
#157
b11001111011110010100101 )
b1 N
b1000000000000000000000000110100 L
b1000000000000000000000000110100 e
b1 k
b11001111011110010100101 l
b11001111011110010100101 4!
#160
1-!
1t
1#
18
1;!
#164
0-!
0t
0#
08
0;!
#168
0!
1-!
0$
0I
1t
1#
18
1;!
0p
#172
0-!
0t
0#
08
0;!
#176
1-!
1t
1#
18
1;!
#180
1!
0-!
1$
1I
0t
0#
08
0;!
1p
b100 8!
b11001111011110010100101 5
b1 _
b1000000000000000000000000110100 ^
b101100 v"
b1000111110101000010100011001001 >"
b110110110100100001101001 /
b11 T
b101100 u"
b1000000000000000000000000111000 U
b10 W
b1100 V
b0 X
b10 Y
#181
b110110110100100001101001 )
b1100 N
b1000000000000000000000000111000 L
b1000000000000000000000000111000 e
b1100 k
b110110110100100001101001 l
b110110110100100001101001 4!
#184
1-!
1t
1#
18
1;!
#188
0-!
0t
0#
08
0;!
#192
0!
1-!
0$
0I
1t
1#
18
1;!
0p
#196
0-!
0t
0#
08
0;!
#200
1-!
1t
1#
18
1;!
#204
1!
0-!
1$
1I
0t
0#
08
0;!
1p
b101 8!
b110110110100100001101001 5
b1100 _
b1000000000000000000000000111000 ^
b101101 v"
b1000111110101000010100011010001 >"
b101100000100001101100 /
b11 T
b101101 u"
b1000000000000000000000000111100 U
b10 W
b100 V
b0 X
b10 Y
#205
b101100000100001101100 )
b100 N
b1000000000000000000000000111100 L
b1000000000000000000000000111100 e
b100 k
b101100000100001101100 l
b101100000100001101100 4!
#208
1-!
1t
1#
18
1;!
#212
0-!
0t
0#
08
0;!
#216
0!
1-!
0$
0I
1t
1#
18
1;!
0p
#220
0-!
0t
0#
08
0;!
#224
1-!
1t
1#
18
1;!
#228
1!
0-!
1$
1I
0t
0#
08
0;!
1p
b110 8!
b101100000100001101100 5
b100 _
b1000000000000000000000000111100 ^
b101110 v"
b11100110001101000011011 /
b10000000000000100 T
b101110 u"
#229
b11100110001101000011011 )
b10000000000000100 K
b10000000000000100 j
b11100110001101000011011 l
b11100110001101000011011 4!
#232
1-!
1t
1#
18
1;!
#236
0-!
0t
0#
08
0;!
#240
0!
1-!
0$
0I
1t
1#
18
1;!
0p
#244
0-!
0t
0#
08
0;!
#248
1-!
1t
1#
18
1;!
#252
1!
0-!
1$
1I
0t
0#
08
0;!
1p
b111 8!
b11100110001101000011011 5
b10000000000000100 ]
b100010100010000110111001 /
#253
b100010100010000110111001 )
b100010100010000110111001 l
b100010100010000110111001 4!
#256
1-!
1t
1#
18
1;!
#260
0-!
0t
0#
08
0;!
#264
0!
1-!
0$
0I
1t
1#
18
1;!
0p
#268
0-!
0t
0#
08
0;!
#272
1-!
1t
1#
18
1;!
#276
1!
0-!
1$
1I
0t
0#
08
0;!
1p
b1000 8!
b100010100010000110111001 5
b10100010110110011011111 /
#277
b10100010110110011011111 )
b10100010110110011011111 l
b10100010110110011011111 4!
#280
1-!
1t
1#
18
1;!
#284
0-!
0t
0#
08
0;!
#288
0!
1-!
0$
0I
1t
1#
18
1;!
0p
#292
0-!
0t
0#
08
0;!
#296
1-!
1t
1#
18
1;!
#300
1!
0-!
1$
1I
0t
0#
08
0;!
1p
b1001 8!
b10100010110110011011111 5
b10011111100101101011000 /
#301
b10011111100101101011000 )
b10011111100101101011000 l
b10011111100101101011000 4!
#304
1-!
1t
1#
18
1;!
#308
0-!
0t
0#
08
0;!
#312
0!
1-!
0$
0I
1t
1#
18
1;!
0p
#316
0-!
0t
0#
08
0;!
#320
1-!
1t
1#
18
1;!
#324
1!
0-!
1$
1I
0t
0#
08
0;!
1p
b1010 8!
b10011111100101101011000 5
0.
b0 /
#325
b0 )
0(
0m
05!
b0 l
b0 4!
#328
1-!
1t
1#
18
1;!
#332
0-!
0t
0#
08
0;!
#336
0!
1-!
0$
0I
1t
1#
18
1;!
0p
#340
0-!
0t
0#
08
0;!
#344
1-!
1t
1#
18
1;!
#348
1!
0-!
1$
1I
0t
0#
08
0;!
1p
b0 8!
b100010100010000110111001011100110001101000011011000101100000100001101100110110110100100001101001011001111011110010100101101000100011110110101010000101011100010001101010110111100011001100111000 6!
17!
b100010100010000110111001011100110001101000011011000101100000100001101100110110110100100001101001011001111011110010100101101000100011110110101010000101011100010001101010110111100011001100111000 (!
1#!
1=!
b100010100010000110111001011100110001101000011011000101100000100001101100110110110100100001101001011001111011110010100101101000100011110110101010000101011100010001101010110111100011001100111000 <!
b0 5
04
1-
#349
1'
1n
#352
1-!
1t
1#
18
1;!
b1 >!
b1110111011001101 A!
b1 }
b1110111011001101 ~
b1110111011001101 F!
b1 E!
#356
0-!
0t
0#
08
0;!
#360
0!
1-!
0$
0I
1t
1#
18
1;!
0p
1?!
1B!
1$!
1%!
1H!
1G!
#364
0-!
0t
0#
08
0;!
#368
1-!
1t
1#
18
1;!
b111111111000000011100101011111110000000001111111100000001 I!
b1000000000010100000000000 L!
b10000001111111111110111011001101100010100010000110111001011100110001101000011011000101100000100001101100110110110100100001101001011001111011110010100101101000100011110110101010000101011100010001101010110111100011001100111000000000010000000000101000000000001111111110000001 J!
0?!
0B!
b111111111000000011100101011111110000000001111111100000001 *!
b10000001111111111110111011001101100010100010000110111001011100110001101000011011000101100000100001101100110110110100100001101001011001111011110010100101101000100011110110101010000101011100010001101010110111100011001100111000000000010000000000101000000000001111111110000001 )!
0$!
0%!
0H!
0G!
b10000001111111111110111011001101100010100010000110111001011100110001101000011011000101100000100001101100110110110100100001101001011001111011110010100101101000100011110110101010000101011100010001101010110111100011001100111000000000010000000000101000000000001111111110000001 N!
b111111111000000011100101011111110000000001111111100000001 M!
#372
1!
0-!
1$
1I
0t
0#
08
0;!
1p
07!
0#!
0=!
13
0-
#373
0'
0n
#376
1-!
1t
1#
18
1;!
1K!
1&!
1O!
#380
0-!
0t
0#
08
0;!
#384
0!
1-!
0$
0I
1t
1#
18
1;!
0p
0K!
b11000000000 U!
0&!
0O!
#388
0-!
0t
0#
08
0;!
#392
1-!
1t
1#
18
1;!
1y
1z
b1 P!
b11111111 Q!
1=
1>
b1 u
b11111111 v
b1 9
b11111111 :
#396
1!
0-!
1$
1I
0t
0#
08
0;!
1p
03
1.
b1110100010011101 /
#397
b1110100010011101 )
1(
1m
15!
b1110100010011101 l
b1110100010011101 4!
#400
1-!
1t
1#
18
1;!
b0 P!
b11111110 Q!
b0 u
b11111110 v
b0 9
b11111110 :
1F
1E
b11111111 B
b1 A
#404
0-!
0t
0#
08
0;!
#408
0!
1-!
0$
0I
1t
1#
18
1;!
0p
b11001010 P!
b1 Q!
b11001010 u
b1 v
b11001010 9
b1 :
b11111110 B
b0 A
#412
0-!
0t
0#
08
0;!
#416
1-!
1t
1#
18
1;!
b11111111 P!
b11111111 u
b11111111 9
b1 B
b11001010 A
#420
1!
0-!
1$
1I
0t
0#
08
0;!
1p
b1 8!
b1110100010011101 5
14
b1111000101010100101101 /
#421
b1111000101010100101101 )
b1111000101010100101101 l
b1111000101010100101101 4!
#424
1-!
1t
1#
18
1;!
b1 P!
b11111111 Q!
b1 u
b11111111 v
b1 9
b11111111 :
b11111111 A
#428
0-!
0t
0#
08
0;!
#432
0!
1-!
0$
0I
1t
1#
18
1;!
0p
b0 P!
b11111110 Q!
b0 u
b11111110 v
b0 9
b11111110 :
b11111111 B
b1 A
